[
  {
    "word": "orange",
    "versions": {
      "1": {
        "text": "fruit",
        "default": "noun"
      },
      "2": {
        "text": "colour",
        "default": "adjective"
      }
    }
  }
]